-------------------------------------------------------------------------------
Test set: com.gazgeek.helloworld.HomeControllerTest
-------------------------------------------------------------------------------
Tests run: 1, Failures: 0, Errors: 0, Skipped: 0, Time elapsed: 0.014 sec - in com.gazgeek.helloworld.HomeControllerTest
