C:\Users\o1g5u\Desktop\dummy-spring-boot-master\src\test\java\com\gazgeek\helloworld\HomeControllerTest.java
C:\Users\o1g5u\Desktop\dummy-spring-boot-master\src\test\java\com\gazgeek\helloworld\HealthTest.java
C:\Users\o1g5u\Desktop\dummy-spring-boot-master\src\test\java\com\gazgeek\helloworld\HelloWorldResponse.java
